{
    "Ancient Osirian Gods": "Dieux de l'ancien Osirion",
    "Apocalypse Riders": "Cavaliers de l'Apocalypse",
    "Archdevils": "Archidiables",
    "Azlanti Pantheon": "Panthéon azlant",
    "Coatl Tribunal": "Tribunal coatl",
    "Core Gods": "Dieux principaux",
    "Covenants": "Alliance",
    "Daemon Harbingers": "Hérauts daémoniaques",
    "Demon Lords": "Seigneurs démons",
    "Dwarven Gods": "Dieux nains",
    "Eldest": "Ainés",
    "Elemental Lords": "Seigneurs élémentaires",
    "Elven Gods": "Dieux elfes",
    "Empyreal Lords": "Seigneurs empyréens",
    "Giant Gods": "Dieux des géants",
    "Goblin Gods": "Dieux des gobelins",
    "Green Man Faiths": "Foi des Hommes-verts",
    "In Memoriam": "In Memoriam",
    "Infernal Dukes": "Ducs infernaux",
    "Monitor Demigods": "Demi-dieux veilleurs",
    "Mwangi Gods": "Dieux du Mwangi",
    "Orc Gods": "Dieux des orcs",
    "Other Gods": "Autres dieux",
    "Outer Gods and Great Old Ones": "Dieux extérieurs et Grands anciens",
    "Pantheons": "Panthéons",
    "Philosophies": "Philosophies",
    "Qlippoth Lords": "Seigneurs Qlippoth",
    "Queens of the Night": "Reines de la nuit",
    "Sahkil Tormentors": "Tourmenteurs sahkil",
    "Sarkorian Gods": "Dieux du Sarkoris",
    "The Forsaken": "Les oubliés",
    "Tian Gods": "Dieux tianais",
    "Vudrani Gods": "Dieux vudrains"
}