{
    "Abomination Vaults": "Caveau des abominations",
    "Adventure Paths": "Campagne",
    "Age of Ashes": "Âge des cendres",
    "Agents of Edgewatch": "Agents du Précipice",
    "Blood Lords": "Seigneurs sanglants",
    "Curtain Call": "Rideau",
    "Extinction Curse": "Sentence d'extinction",
    "Fists of the Ruby Phoenix": "Poings du phénix de rubis",
    "Gatewalkers": "Gatewalkers",
    "Kingmaker": "Kingmaker",
    "Outlaws of Alkenstar": "Hors la loi d'Alkenastre",
    "Quest for the Frozen Flame": "Quête de la flamme glacée",
    "Season of Ghosts": "Saison des fantômes",
    "Seven Dooms for Sandpoint": "Septs fléaux de Pointesable",
    "Sky King's Tomb": "Tombe du Roi céleste",
    "Spore War": "Guerre des spores",
    "Stolen Fate": "Destin volé",
    "Strength of Thousands": "Force des milliers",
    "Triumph of the Tusk": "Triomphe de la horde",
    "Wardens of Wildwood": "Gardiens de Wildwood"
}