{
    "label": "Constructs (Animal Companions)",
    "entries": {
        "Prototype Construct": {
            "name": "Prototype créature artificielle"
        },
        "Megaton Strike (CC)": {
            "name": "Frappe mégatonne (CC)"
        },
        "Unarmed Strike 1": {
            "name": "Frappe à mains nues 1"
        },
        "Paragon Construct (CC)": {
            "name": "Parangon créature artificielle (CC)"
        },
        "Incredible Construct (CC)": {
            "name": "Créature artificielle incroyable (CC)"
        },
        "Unarmed Strike 2": {
            "name": "Frappe à mains nues 2"
        },
        "Advanced Construct (CC)": {
            "name": "Créature artificielle avancée (CC)"
        }
    },
    "mapping": {
        "description": "system.details.publicNotes",
        "gm": "system.details.privateNotes",
        "blurb": "system.details.blurb",
        "cadetails": "system.attributes.ac.details",
        "hpdetails": "system.attributes.hp.details",
        "languages": "system.details.languages.details",
        "perception": "system.perception.details",
        "saves": "system.attributes.allSaves.value",
        "speeds": "system.attributes.speed.details",
        "desc (hazard)": "system.details.description",
        "disable": "system.details.disable",
        "reset": "system.details.reset",
        "routine": "system.details.routine",
        "stealth": "system.attributes.stealth.details",
        "target": "system.target.value",
        "items": {
            "path": "items",
            "converter": "translateActorItems"
        },
        "AcrobaticsVariants": {
            "path": "system.skills.acrobatics.special",
            "converter": "translateSkillVariants"
        },
        "ArcanaVariants": {
            "path": "system.skills.arcana.special",
            "converter": "translateSkillVariants"
        },
        "AthleticsVariants": {
            "path": "system.skills.athletics.special",
            "converter": "translateSkillVariants"
        },
        "CraftingVariants": {
            "path": "system.skills.crafting.special",
            "converter": "translateSkillVariants"
        },
        "DeceptionVariants": {
            "path": "system.skills.deception.special",
            "converter": "translateSkillVariants"
        },
        "DiplomacyVariants": {
            "path": "system.skills.diplomacy.special",
            "converter": "translateSkillVariants"
        },
        "IntimidationVariants": {
            "path": "system.skills.intimidation.special",
            "converter": "translateSkillVariants"
        },
        "MedicineVariants": {
            "path": "system.skills.medicine.special",
            "converter": "translateSkillVariants"
        },
        "NatureVariants": {
            "path": "system.skills.nature.special",
            "converter": "translateSkillVariants"
        },
        "OccultismVariants": {
            "path": "system.skills.occultism.special",
            "converter": "translateSkillVariants"
        },
        "PerformanceVariants": {
            "path": "system.skills.performance.special",
            "converter": "translateSkillVariants"
        },
        "ReligionVariants": {
            "path": "system.skills.religion.special",
            "converter": "translateSkillVariants"
        },
        "SocietyVariants": {
            "path": "system.skills.society.special",
            "converter": "translateSkillVariants"
        },
        "StealthVariants": {
            "path": "system.skills.stealth.special",
            "converter": "translateSkillVariants"
        },
        "SurvivalVariants": {
            "path": "system.skills.survival.special",
            "converter": "translateSkillVariants"
        },
        "ThieveryVariants": {
            "path": "system.skills.thievery.special",
            "converter": "translateSkillVariants"
        }
    }
}