{
    "label": "Capacités des monstres",
    "entries": {
        "Poison": {
            "name": "Poison",
            "description": "<p>@Localize[PF2E.NPC.Abilities.Glossary.Poison]</p>"
        },
        "Telepathy": {
            "name": "Télépathie",
            "description": "<p>@Localize[PF2E.NPC.Abilities.Glossary.Telepathy]</p>"
        },
        "Rend": {
            "name": "Éventration",
            "description": "<p>@Localize[PF2E.NPC.Abilities.Glossary.Rend]</p>"
        },
        "Engulf": {
            "name": "Engloutissement",
            "description": "<p>Jet de @Check[reflex|dc:], @Damage[(0)[damageType]]{0 dégât}, DD pour S'échapper [0], Rupture [0]</p>\n<hr />\n<p>@Localize[PF2E.NPC.Abilities.Glossary.Engulf]</p>"
        },
        "Wavesense": {
            "name": "Perception des ondes",
            "description": "<p>@Localize[PF2E.NPC.Abilities.Glossary.Wavesense]</p>"
        },
        "Catch Rock": {
            "name": "Interception de rochers",
            "description": "<p>@Localize[PF2E.NPC.Abilities.Glossary.CatchRock]</p>"
        },
        "Retributive Strike": {
            "name": "Frappe punitive",
            "description": "<p>@Localize[PF2E.NPC.Abilities.Glossary.RetributiveStrike]</p>"
        },
        "Greater Constrict": {
            "name": "Constriction supérieure",
            "description": "<p>@Damage[(0)[bludgeoning]]{0 contondant}, @Check[fortitude|dc:|basic]</p>\n<hr />\n<p>@Localize[PF2E.NPC.Abilities.Glossary.GreaterConstrict]</p>"
        },
        "Form Up": {
            "name": "Se reformer",
            "description": "<p>@Localize[PF2E.NPC.Abilities.Glossary.FormUp]</p>"
        },
        "+1 Status to All Saves vs. Magic": {
            "name": "Bonus de statut de +1 aux jets de sauvegarde contre la magie"
        },
        "Aquatic Ambush": {
            "name": "Embuscade aquatique",
            "description": "<p>@Localize[PF2E.NPC.Abilities.Glossary.AquaticAmbush]</p>"
        },
        "Disease": {
            "name": "Maladie",
            "description": "<p>@Localize[PF2E.NPC.Abilities.Glossary.Disease]</p>"
        },
        "Stench": {
            "name": "Puanteur",
            "description": "<p>@Check[fortitude|dc:]</p><hr /><p>@Localize[PF2E.NPC.Abilities.Glossary.Stench]</p>"
        },
        "Trample": {
            "name": "Piétinement",
            "description": "<p>[Taille], [Frappe indiquée], @Check[reflex|dc:|basic]</p>\n<hr />\n<p>@Localize[PF2E.NPC.Abilities.Glossary.Trample]</p>"
        },
        "Reactive Strike": {
            "name": "Frappe réactive",
            "description": "<p>@Localize[PF2E.NPC.Abilities.Glossary.ReactiveStrike]</p>"
        },
        "Constant Spells": {
            "name": "Sorts constants",
            "description": "<p>@Localize[PF2E.NPC.Abilities.Glossary.ConstantSpells]</p>"
        },
        "Shield Block": {
            "name": "Blocage au bouclier",
            "description": "<p>@Localize[PF2E.NPC.Abilities.Glossary.ShieldBlock]</p>"
        },
        "Attack of Opportunity": {
            "name": "Frappe réactive",
            "description": "<p>@Localize[PF2E.NPC.Abilities.Glossary.AttackOfOpportunity]</p>"
        },
        "Troop Defenses": {
            "name": "Défenses des troupes",
            "description": "<p>@Localize[PF2E.NPC.Abilities.Glossary.TroopDefenses]</p>\n<p>@Localize[PF2E.NPC.Abilities.Glossary.TroopDefenses]</p>"
        },
        "Change Shape": {
            "name": "Changement de forme",
            "description": "<p>@Localize[PF2E.NPC.Abilities.Glossary.ChangeShape]</p>"
        },
        "Ferocity": {
            "name": "Férocité",
            "description": "<p>@Localize[PF2E.NPC.Abilities.Glossary.Ferocity]</p>"
        },
        "Improved Grab": {
            "name": "Agrippement améliorés",
            "description": "<p>@Localize[PF2E.NPC.Abilities.Glossary.ImprovedGrab]</p>"
        },
        "Pull": {
            "name": "Attirer",
            "description": "<p>@Localize[PF2E.NPC.Abilities.Glossary.Pull]</p>"
        },
        "Scent": {
            "name": "Odorat",
            "description": "<p>@Localize[PF2E.NPC.Abilities.Glossary.Scent]</p>"
        },
        "Improved Knockdown": {
            "name": "Renversement amélioré",
            "description": "<p>@Localize[PF2E.NPC.Abilities.Glossary.ImprovedKnockdown]</p>"
        },
        "At-Will Spells": {
            "name": "Sorts à volonté",
            "description": "<p>@Localize[PF2E.NPC.Abilities.Glossary.AtWillSpells]</p>"
        },
        "Greater Darkvision": {
            "name": "Vision dans le noir supérieure",
            "description": "<p>@Localize[PF2E.NPC.Abilities.Glossary.GreaterDarkvision]</p>"
        },
        "Fast Healing": {
            "name": "Guérison accélérée",
            "description": "<p>@Localize[PF2E.NPC.Abilities.Glossary.FastHealing]</p>"
        },
        "Nimble Dodge": {
            "name": "Esquive agile",
            "description": "<p><strong>Déclencheur</strong> Une créature vous cible avec une attaque et vous pouvez voir l'attaquant.</p>\n<p><strong>Conditions</strong> Vous n'êtes pas Surchargé</p>\n<hr />\n<p>Vous esquivez habilement le coup et obtenez un bonus de circonstances de +2 à la CA contre l'attaque déclencheuse.</p>"
        },
        "Low-Light Vision": {
            "name": "Vision nocturne",
            "description": "<p>@Localize[PF2E.NPC.Abilities.Glossary.LowLightVision]</p>"
        },
        "Improved Push": {
            "name": "Bousculade améliorée",
            "description": "<p>@Localize[PF2E.NPC.Abilities.Glossary.ImprovedPush]</p>"
        },
        "Throw Rock": {
            "name": "Projection de rochers",
            "description": "<p>@Localize[PF2E.NPC.Abilities.Glossary.ThrowRock]</p>"
        },
        "Thoughtsense": {
            "name": "Perception des pensées",
            "description": "<p>@Localize[PF2E.NPC.Abilities.Glossary.Thoughtsense]</p>"
        },
        "Darkvision": {
            "name": "Vision dans le noir",
            "description": "<p>@Localize[PF2E.NPC.Abilities.Glossary.Darkvision]</p>"
        },
        "Aura": {
            "name": "Aura",
            "description": "<p>@Localize[PF2E.NPC.Abilities.Glossary.Aura]</p>"
        },
        "All-Around Vision": {
            "name": "Vision panoramique",
            "description": "<p>@Localize[PF2E.NPC.Abilities.Glossary.AllAroundVision]</p>"
        },
        "Sneak Attack": {
            "name": "Attaque sournoise",
            "description": "<p>Les Frappes de la créature infligent 1d6 dégâts de précision supplémentaires aux créatures @UUID[Compendium.pf2e.conditionitems.Item.AJh5ex99aV6VTggg]{Prises au dépourvu}.</p>"
        },
        "Tremorsense": {
            "name": "Perception des vibrations",
            "description": "<p>@Localize[PF2E.NPC.Abilities.Glossary.Tremorsense]</p>"
        },
        "Knockdown": {
            "name": "Renversement",
            "description": "<p>@Localize[PF2E.NPC.Abilities.Glossary.Knockdown]</p>"
        },
        "Swallow Whole": {
            "name": "Gober",
            "description": "<p>[Taille indiquée], @Damage[0[bludgeoning]]{0 contondant}, Rupture [0]</p>\n<hr />\n<p>@Localize[PF2E.NPC.Abilities.Glossary.SwallowWhole]</p>"
        },
        "Lifesense": {
            "name": "Perception de la vie",
            "description": "<p>@Localize[PF2E.NPC.Abilities.Glossary.Lifesense]</p>"
        },
        "Grab": {
            "name": "Agrippement",
            "description": "<p>@Localize[PF2E.NPC.Abilities.Glossary.Grab]</p>"
        },
        "Coven": {
            "name": "Cercle",
            "description": "<p>@Localize[PF2E.NPC.Abilities.Glossary.Coven]</p>"
        },
        "Regeneration": {
            "name": "Régénération",
            "description": "<p>@Localize[PF2E.NPC.Abilities.Glossary.Regeneration]</p>"
        },
        "Constrict": {
            "name": "Constriction",
            "description": "<p>@Damage[(0)[bludgeoning]]{0 contondant}, @Check[fortitude|dc:|basic]</p>\n<hr />\n<p>@Localize[PF2E.NPC.Abilities.Glossary.Constrict]</p>"
        },
        "Void Healing": {
            "name": "Guérison du vide",
            "description": "<p>@Localize[PF2E.NPC.Abilities.Glossary.NegativeHealing]</p>"
        },
        "Buck": {
            "name": "Désarçonner",
            "description": "<p>@Check[reflex|dc:]</p>\n<p>@Localize[PF2E.NPC.Abilities.Glossary.Buck]</p>"
        },
        "Frightful Presence": {
            "name": "Présence terrifiante",
            "description": "<p>0 mètres @Check[will|dc:]</p>\n<hr />\n<p>@Localize[PF2E.NPC.Abilities.Glossary.FrightfulPresence]</p>"
        },
        "Master's Eye": {
            "name": "Yeux du maître",
            "description": "<p>Le maître observe le monde à travers les yeux du raktavarna au lieu des siens, en utilisant la Perception et la vision dans le noir du raktavarna. Cela dure jusqu'à la fin du prochain tour du maître, mais le maître peut Maintenir l'activité.</p>\n<p>Cette capacité fonctionne quelle que soit la portée, même sur différents plans d'existence. Si le raktavarna meurt alors que son maître utilise cette capacité, le maître est @UUID[Compendium.pf2e.conditionitems.Item.dfCMdR4wnpbYNTix]{Étourdi 5}.</p>"
        },
        "Swarm Mind": {
            "name": "Esprit de la nuée",
            "description": "<p>@Localize[PF2E.NPC.Abilities.Glossary.SwarmMind]</p>"
        },
        "Power Attack": {
            "name": "Attaque en puissance",
            "description": "<p>@Localize[PF2E.NPC.Abilities.Glossary.PowerAttack]</p>"
        },
        "Light Blindness": {
            "name": "Aveuglé par la lumière",
            "description": "<p>@Localize[PF2E.NPC.Abilities.Glossary.LightBlindness]</p>"
        },
        "Push": {
            "name": "Bousculade",
            "description": "<p>@Localize[PF2E.NPC.Abilities.Glossary.Push]</p>"
        }
    },
    "mapping": {
        "description": "system.description.value",
        "gm": "system.description.gm",
        "rules": {
            "path": "system.rules",
            "converter": "translateRules"
        }
    }
}