{
    "label": "Dons (Animal Companions)",
    "entries": {
        "Wrecker": {
            "name": "Wrecker (Spécialiation - Démolisseur)",
            "description": "<p>Les animaux compagnons spécialisés sont plus intelligents et ont un comportement plus complexe. La première fois qu'un animal accède à une spécialisation, il gagne les aptitudes suivantes : son degré de maîtrise pour les attaques à mains nues passe à expert. Son degré de maîtrise pour les jets de sauvegarde et la Perception passe à expert. Augmentez son modificateur de Dextérité de +1 et son modificateur d'Intelligence de +2. Les dégâts infligés par ses attaques à mains nues passent de deux dés à trois dés et il augmente les dégâts supplémentaires infligés avec ses attaques à mains nues de 2 à 4 ou de 3 à 6.</p>\n<p>Votre compagnon casse des tas de choses. Ses attaques à mains nues ignorent la moitié de la Solidité d'un objet. Son degré de maîtrise en Athlétisme passe à maître et son modidificateur de Force augmente de +1.</p>"
        },
        "Bully": {
            "name": "Bully (Spécialisé - Brute)",
            "description": "<p>Les animaux compagnons spécialisés sont plus intelligents et ont un comportement plus complexe. La première fois qu'un animal accède à une spécialisation, il gagne les aptitudes suivantes : son degré de maîtrise pour les attaques à mains nues passe à expert. Son degré de maîtrise pour les jets de sauvegarde et la Perception passe à expert. Augmentez son modificateur de Dextérité de +1 et son modificateur d'Intelligence de +2. Les dégâts infligés par ses attaques à mains nues passent de deux dés à trois dés et il augmente les dégâts supplémentaires infligés avec ses attaques à mains nues de 2 à 4 ou de 3 à 6.</p>\n<p>Votre compagnon terrorise les ennemis avec des démonstrations de force et les malmènent sur le champ de bataille. Son degré de maîtrise en Athlétisme et en Intimidation passe à Expert (ou Maître s'il est déjà expert du fait de son type), son modificateur de Force augmente de +1 et son modificateur de Charisme augmente de +3.</p>"
        },
        "Genie-Touched Companion": {
            "name": "Genie-Touched Companion (compagnon touché par un génie)",
            "description": "<p>Si vous prenez un don qui vous permettrait normalement de choisir d'avoir un compagnon animal sauvage ou agile, vous pouvez choisir à la place qu'il devienne un compagnon touché par un génie. Lorsque vous choisissez ce don, sélectionnez le type de génie dont le pouvoir imprègne votre compagnon. Les génies et leurs traits élémentaires sont les suivants : djinn (air), éfrit (feu), marid (eau) ou shaitan (terre). Un compagnon touché par un génie augmente son modificateur de Sagesse de 2 et ses modificateurs de Force, de Dextérité et de Constitution de 1. Il inflige 3 dégâts supplémentaires avec ses attaques à mains nues. Ces dégâts sont des dégâts de feu pour un compagnon touché par un éfrit ou du même type que l'attaque à mains nues pour les autres. Il gagne une résistance 5 contre les dégâts d'un type dépendant du génie : acide pour un djinn, feu pour un éfrit ou un marid, et électricité pour un shaitan. Si le compagnon est touché par un djinn ou un éfrit, augmentez son rang de maîtrise en Acrobaties à expert ; s'il est touché par un marid ou un shaitan, augmentez son rang de maîtrise en Athlétisme à expert. Il apprend également la manoeuvre avancée correspondant à son type. Ses attaques sont considérées comme magiques pour ignorer les résistances et gagnent le trait élémentaire du génie. Les compagnons touchés par un génie peuvent choisir parmi les options suivantes lorsqu'ils deviennent des compagnons animaux spécialisés.</p>"
        },
        "Specialized Animal Companion": {
            "name": "Specialized Animal Companion (Compagnon animal spécialisé)",
            "description": "<p>Les compagnons animaux spécialisés sont plus intelligents et adoptent des comportements plus complexes. La plupart des compagnons animaux ne peuvent avoir qu'une seule spécialisation. La première fois qu'un animal gagne une spécialisation, il obtient également les avantages suivants :</p>\n<ul>\n  <li>Son rang de maîtrise pour les attaques à mains nues augmente à expert.</li>\n  <li>Ses rangs de maîtrise pour les jets de sauvegarde et la Perception augmentent à maître.</li>\n  <li>Augmentez son modificateur de Dextérité de 1 et son modificateur d'Intelligence de 2.</li>\n  <li>Les dégâts de ses attaques à mains nues passent de deux dés à trois dés, et les dégâts supplémentaires de ses attaques à mains nues augmentent de 2 à 4 ou de 3 à 6.</li>\n</ul>",
            "rules": {
                "4": {
                    "prompt": "Sélectionnez un compagnon spécialisé auquel vous avez accès"
                }
            }
        },
        "Mature Animal Companion": {
            "name": "Mature Animal Companion (Compagnon animal adulte)",
            "description": "<p>Lorsque vous passez un compagnon animal de jeune à adulte :</p>\n<ul>\n    <li>Si votre compagnon est de taille Moyenne ou inférieure, il grandit d'une taille</li>\n    <li>Augmentez ses modificateurs de Force, de Dextérité, de Constitution et de Sagesse de +1. </li>\n    <li>Son degré de maîtrise en Perception et pour tous les jets de sauvegarde passent à expert. Augmentez ses degrés de maîtrise en Intimidation, Discrétion et Survie à qualifié. S'il est déjà qualifié dans l'une de ces compétences à cause de son type, il devient expert dans cette compétence</li>\n    <li>Augmentez ses dégâts d'attaque à mains nues de un à deux dés (par exemple de 1d8 à 2d8)</li>\n</ul>"
        },
        "Steadfast Strider": {
            "name": "Steadfast Strider (Spécialisé - Monture inébranlable (Touché par un shaitan))",
            "description": "<p>Les animaux compagnons spécialisés sont plus intelligents et ont un comportement plus complexe. La première fois qu'un animal accède à une spécialisation, il gagne les aptitudes suivantes : son degré de maîtrise pour les attaques à mains nues passe à expert. Son degré de maîtrise pour les jets de sauvegarde et la Perception passe à expert. Augmentez son modificateur de Dextérité de +1 et son modificateur d'Intelligence de +2. Les dégâts infligés par ses attaques à mains nues passent de deux dés à trois dés et il augmente les dégâts supplémentaires infligés avec ses attaques à mains nues de 2 à 4 ou de 3 à 6.</p>\n<p>Votre compagnon ignore les terrains difficiles et les terrains très difficiles fait en sédiments ou pierre et peut se déplacer dans les sables mouvants, la boue et des surfaces similaires, comme si elles étaient solides. Il obtient un bonus de statut de +2 à ses jets de sauvegarde et son DD pour éviter d'être poussé ou subir un Croc-en-jambe. Son modificateur de Force augmente de +1 et il devient expert en défense avec une barde.</p>\n<p>Cette spécialisation ne peut être séléctionnée que par les compagnons touchés par un shaitan.</p>"
        },
        "Ferocious Charge": {
            "name": "Ferocious Charge (Charge féroce)",
            "description": "<p>Le compagnon Marche rapidement à deux fois sa Vitesse en ligne droite et porte une Frappe de bois, de corne ou de tête. S'il s'est déplacé d'au moins 6 mètres, il inflige 1d8 dégâts. Ces dégâts passent à 2d8 si votre compagnon est spécialisé. Le compagnon peut utiliser Charge féroce en Creusant, Escaladant, Nageant ou Volant au lieu de Marcher rapidement s'il dispose du type de déplacement correspondant.</p>"
        },
        "Billowing Wings": {
            "name": "Billowing Wings (Ailes déployées)",
            "description": "<p>Vous avez entraîné vos compagnons ailés à accumuler de l'air dans leurs ailes, ce qui leur permet d'envoyer une rafale de vent concentrée sur leurs adversaires, ce qui peut les faire tituber. Vos compagnons avec des ailes obtiennent une attaque à mains nues à distance de bourrasque, qui inflige 1d4 dégâts contondants avec une portée de 9 mètres et possède les traits air et propulsif. En cas de coup critique, la cible poussée en arrière de 1,50 mètre. C'est un déplacement forcé.</p>",
            "rules": {
                "1": {
                    "text": "En cas de coup critique, la cible est repoussée de 1,5 mètre. C'est un déplacement forcé."
                }
            }
        },
        "Nature's Precision": {
            "name": "Nature's Precision (Précision de la nature)",
            "description": "<p>Vos compagnons s'attaquent aux points faibles d'un ennemi. Lorsque votre compagnon frappe une créature @UUID[Compendium.pf2e.conditionitems.Item.AJh5ex99aV6VTggg]{Prise au dépourvu} avec une attaque à mains nues agile ou finesse, il inflige 1d4 dégâts de précision supplémentaires (2d4 si le compagnon animal est spécialisé). Si le compagnon inflige déjà des dégâts de précision, combinez les dégâts de précision.</p>"
        },
        "Tracker": {
            "name": "Tracker (Spécialisation - Pisteur)",
            "description": "<p>Les animaux compagnons spécialisés sont plus intelligents et ont un comportement plus complexe. La première fois qu'un animal accède à une spécialisation, il gagne les aptitudes suivantes : son degré de maîtrise pour les attaques à mains nues passe à expert. Son degré de maîtrise pour les jets de sauvegarde et la Perception passe à expert. Augmentez son modificateur de Dextérité de +1 et son modificateur d'Intelligence de +2. Les dégâts infligés par ses attaques à mains nues passent de deux dés à trois dés et il augmente les dégâts supplémentaires infligés avec ses attaques à mains nues de 2 à 4 ou de 3 à 6.</p>\n<p>Votre compagnon est un pisteur sans pareil. Il peut se mouvoir à pleine Vitesse lorsqu'il suit une piste. Son degré de maîtrise en Survie passe à expert (ou à maître s'il est déjà expert dans cette compétence associée à son type) et son modificateur de Sagesse augmente de +1.</p>"
        },
        "Sinking Jaws": {
            "name": "Sinking Jaws (Mâchoires plongeantes)",
            "description": "<p><strong>Conditions</strong> Ce compagnon a Agrippé ou Entravé une créature avec ses mâchoires ou ses crocs</p>\n<hr />\n<p><strong>Effet</strong> Cet adversaire agrippé ou entravé par votre compagnon subit des dégâts perforants égaux au niveau du compagnon plus votre modificateur de Force (@Damage[(@actor.level + @actor.abilities.str.mod)[piercing]]).</p>"
        },
        "Daredevil": {
            "name": "Daredevil (Spécialisé - Casse-cou)",
            "description": "<p>Les animaux compagnons spécialisés sont plus intelligents et ont des comportements plus complexes. La première fois qu'un animal accède à une spécialisation, il obtient les aptitudes suivantes : son degré de maîtrise pour les attaques à mains nues passe à expert. Son degré de maîtrise pour les jets de sauvegarde et la Perception passe à expert. Augmentez son modificateur de Dextérité de +1 et son modificateur d'Intelligence de +2. Les dégâts infligés par ses attaques à mains nues passent de deux dés à trois dés et il augmente les dégâts supplémentaires infligés avec ses attaques à mains nues de 2 à 4 ou de 3 à 6.</p>\n<p>Votre animal compagnon rejoint la mêlée en effectuant des bonds et des plongeons gracieux. Il obtient la capacité Refuser l'avantage de sorte qu'il n'est pas Pris au dépourvu à l'encontre des créatures qui sont Cachées, Non détectées ou qui le prennent en tenaille sauf si la créature est d'un niveau supérieur au vôtre. Il devient maître en Acrobaties et son modificateur de Dextérité augmente de +1. Son degré de maîtrise en défense sans armure passe à expert.</p>"
        },
        "Ambusher": {
            "name": "Ambusher (Spécialisé - Piègeur)",
            "description": "<p>Les animaux compagnons spécialisés sont plus intelligents et ont un comportement plus complexe. La première fois qu'un animal accède à une spécialisation, il gagne les aptitudes suivantes : son degré de maîtrise pour les attaques à mains nues passe à expert. Son degré de maîtrise pour les jets de sauvegarde et la Perception passe à expert. Augmentez son modificateur de Dextérité de +1 et son modificateur d'Intelligence de +2. Les dégâts infligés par ses attaques à mains nues passent de deux dés à trois dés et il augmente les dégâts supplémentaires de ses attaques à mains nues de 2 à 4 ou de 3 à 6.</p>\n<p>Dans son environnement naturel, votre compagnon peut Être furtif même s'il est Observé. Son degré de maîtrise en Discrétion passe à expert (ou à maître s'il est déjà expert dans cette compétence associée à son type) et son modificateur de Dextérité augmente de +1. Il devient expert en armure sans défense.</p>"
        },
        "Nimble Animal Companion": {
            "name": "Nimble Animal Companion (Compagnon animal agile)",
            "description": "<p>Pour faire passer un compagnon animal d'adulte à agile:</p> \n<ul>\n    <li>Augmentez son modificateur de Dextérité de +2 et ses modificateurs de Force, de Constitution et de Sagesse de +1. </li>\n    <li>Augmentez ses degrés de maîtrise en Acrobaties à expert. </li>\n    <li>Il inflige 2 dégâts supplémentaires avec ses attaques à mains nues. Pour le fait d'ignorer les résistances, ses attaques deviennent magiques.</li>\n    <li>Il apprend également la manœuvre avancée de son type</li>\n</ul>"
        },
        "Deep Diver": {
            "name": "Deep Diver (Spécialisé - Plongeur profond Vitesse de base (Touché par une maride))",
            "description": "<p>Votre compagnon gagne une Vitesse de nage de 9 mètres ou un bonus de statut de +3 mètres s'il possède déjà une Vitesse de nage et peut respirer sous l'eau si ce n'était pas déjà le cas. Son modificateur en Constitution augmente de +1. Il devient maître en Réflexes et expert en barde. Cette spécialisation ne peut être sélectionée que par les compagnons animaux touchés par une maride.</p>"
        },
        "Wind Chaser": {
            "name": "Wind Chaser (Spécialisé - Chasse-vent (touché par un djinn))",
            "description": "<p>Votre compagnon obtient un bonus de statut de +6 mètres à sa Vitesse ou à sa Vitesse de vol (selon votre choix s'il a les deux). Il devient maître en Acrobaties et son modificateur en Dextérité augmente de 1. Il devient légendaire en Réflexes et expert en défense sans armure.</p>\n<p>Cette spécialisation ne peut être sélectionnée que par les compagnons animaux touchés par un djinn.</p>",
            "rules": {
                "0": {
                    "prompt": "Quelle vitesse devrait obtenir un bonus?"
                }
            }
        },
        "Heightened Instincts": {
            "name": "Heightened Instincts (Instincts exacerbés)",
            "description": "<p>Vous avez travaillé à aiguiser les instincts de vos compagnons à des niveaux surnaturels. Lorsque l'un de vos compagnons animaux obtient un succès sur un jet de sauvegarde, il devient un succès critique.</p>"
        },
        "Running Kick": {
            "name": "Running Kick (Ruade au passage)",
            "description": "<p>Ce compagnon Marche rapidement à deux fois sa vitesse et fait une Frappe de sabot, de pied ou de serre à n'importe quel moment durant le déplacement. Ce déplacement ne provoque pas de réaction d'une créature endommagée par la Frappe.</p>"
        },
        "Vicious Rend": {
            "name": "Vicious Rend (Éventration vicieuse)",
            "description": "<p>Portez deux Frappes de griffe, de pince, de poing ou de serre contre la même cible, appliquant la pénalité d'attaques multiples comme à l'ordinaire. Si les deux Frappes touchent, la cible inflige @Damage[1d6[bleed]]{1d6 dégâts de saignement}. Ces dégâts passent à 2d6 si votre compagnon est spécialisé.</p>"
        },
        "Savage Animal Companion": {
            "name": "Savage Animal Companion (Compagnon animal sauvage)",
            "description": "<p>Pour faire passer un compagnon animal d'adulte à sauvage, augmentez son modificateur de Force de +2 et ses modificateurs de Dextérité, de Constitution et de Sagesse de +1. Il inflige 3 dégâts supplémentaires à ses attaques à mains nues. Faites passer son degré de maîtrise en Athlétisme à expert. Il apprend également la manœuvre avancée de son type. Si votre compagnon est de taille Moyenne ou inférieure, il grandit d'une taille. Pour le fait d'ignorer les résistances, ses attaques deviennent magiques.</p>"
        },
        "Sweeping Tail": {
            "name": "Sweeping Tail (Queue fouettante)",
            "description": "<p>Ce compagnon porte deux Frappes de queue contre des créatures différentes dans son allonge, en augmentant sa pénalité d'attaques multiples comme à l'ordinaire. S'il touche, il repousse une cible de 1,50 mètre ou de 3 mètres en cas de coup critique. C'est un déplacement forcé.</p>"
        },
        "Wildfire Scorcher": {
            "name": "Wildfire Scorcher (Brûleur de feu sauvage)",
            "description": "<p>Votre compagnon obtient une résistance au feu égale à votre niveau. Toute créature qui tente de le @UUID[Compendium.pf2e.actionspf2e.Item.PMbdMWc2QroouFGD]{Saisir} ou de l'Agripper, de l'attaquer à mains nues ou de le Frapper avec une arme de corps-à-corps lorsqu'elle se trouve sur une case adjacente à votre compagnon subit @Damage[2d6[fire]]{2d6 dégâts de feu}. Son modificateur de Dextérité augmente de 1. Il devient légendaire en Réflexes et expert en défense sans armure. Cette spécialisation ne peut être sélectionnée que par les compagnons touchés par un éfrit.</p>"
        },
        "Racer": {
            "name": "Racer (Spécialisation - Coureur)",
            "description": "<p>Les animaux compagnons spécialisés sont plus intelligents et ont un comportement plus complexe. La première fois qu'un animal accède à une spécialisation, il gagne les aptitudes suivantes : son degré de maîtrise pour les attaques à mains nues passe à expert. Son degré de maîtrise pour les jets de sauvegarde et la Perception passe à expert. Augmentez son modificateur de Dextérité de +1 et son modificateur d'Intelligence de +2. Les dégâts infligés par ses attaques à mains nues passent de deux dés à trois dés et il augmente les dégâts supplémentaires infligés par ses attaques à mains nues de 2 à 4 ou de 3 à 6.</p>\n<p>Votre compagnon court vite. Il obtient un bonus de statut de +3 mètres à sa Vitesse, sa Vitesse de nage ou sa Vitesse de vol (selon votre choix). Son degré de maîtrise en jets de Vigueur devient légendaire et son modificateur de Constitution augmente de +1.</p>"
        },
        "Shade": {
            "name": "Shade (Ombre)",
            "description": "<p><strong>Access</strong> Incantateur de l'ombre</p>\n<hr />\n<p>La forme physique de votre compagnon animal est faite en partie ou en totalité d'ombres. Il gagne vision dans le noir, une résistance à tous les dégâts de 5 sauf Force et, dans les zones de lumière faible ou de ténèbres, il peut Faire un pas de 3 mètres au lieu de 1,50 mètre. Son degré de maîtrise en défense sans armure passe à expert, ou maître si il est agile.</p>"
        },
        "Indomitable Animal Companion": {
            "name": "Indomitable Animal Companion (Compagnon animal indomptable)",
            "description": "<p>Un compagnon animal indomptable augmente son modificateur de Constitution de +2 et ses modificateurs de Force, de Dextérité et de Sagesse de +1. Il inflige 3 dégâts supplémentaires à ses attaques à mains nues. Faites passer son degré de maîtrise en Athlétisme à expert et son degré de maîtrise en barde à expert. Il apprend également la manœuvre avancée de son type. Si votre compagnon est de taille Moyenne ou inférieure, il grandit d'une taille. Pour le fait d'ignorer les résistances, ses attaques deviennent magiques.</p>"
        },
        "Unseen Animal Companion": {
            "name": "Unseen Animal Companion (Compagnon animal jamais vu)",
            "description": "<p>Les compagnons animaux cryptides ont une apparence un peu particulière avec souvent des caractéristiques étranges ou qui semblent provenir d'un animal différent. Si vous prenez un don qui vous permettrait normalement de choisir de faire de votre compagnon un compagnon animal sauvage ou agile, vous pouvez choisir d'en faire à la place un compagnon animal jamais vu. Un compagnon animal jamais vu augmente son modificateur de Sagesse de +2 et ses modificateurs de Force, de Dextérité et de Constitution de +1. Il inflige 3 dégâts supplémentaires avec ses attaques à mains nues et inflige 1d4 dégâts de précision supplémentaires contre des cibles @Compendium[pf2e.conditionitems.Off-Guard]{Prises au dépourvu} (si le compagnon animal inflige déjà des dégâts de précision, comme un félin, combinez les dégâts de précision). Il devient expert en Discrétion. Il apprend également la manœuvre avancée de son type.</p>"
        }
    },
    "mapping": {
        "description": "system.description.value",
        "gm": "system.description.gm",
        "rules": {
            "path": "system.rules",
            "converter": "translateRules"
        }
    }
}