{
    "Anadi": "Anadi",
    "Android": "Androïde",
    "Athamaru": "Athamaru",
    "Automaton": "Automate",
    "Awakened Animal": "Animal éveillé",
    "Azarketi": "Azarketi",
    "Catfolk": "Homme-félin (Félide)",
    "Centaur": "Centaure",
    "Conrasu": "Conrasu",
    "Dwarf": "Nain",
    "Elf": "Elfe",
    "Fetchling": "Fetchelin",
    "Fleshwarp": "Distordu",
    "Ghoran": "Ghoran",
    "Gnome": "Gnome",
    "Goblin": "Gobelin",
    "Goloma": "Goloma",
    "Halfling": "Halfelin",
    "Hobgoblin": "Hobgobelin",
    "Human": "Humain",
    "Kashrishi": "Kashrishi",
    "Kholo": "Kholo",
    "Kitsune": "Kitsune",
    "Kobold": "Kobold",
    "Leshy": "Léchi",
    "Lizardfolk": "Homme-lézard",
    "Merfolk": "Homme-poisson",
    "Minotaur": "Minotaure",
    "Nagaji": "Nagaji",
    "Orc": "Orque",
    "Poppet": "Poupée",
    "Ratfolk": "Homme-rat",
    "Samsaran": "Samsaran",
    "Sarangay": "Sarangay",
    "Shisk": "Shisk",
    "Shoony": "Shoony",
    "Skeleton": "Squelette",
    "Sprite": "Sprite",
    "Strix": "Strix",
    "Surki": "Surki",
    "Tanuki": "Tanuki",
    "Tengu": "Tengu",
    "Tripkee": "Tripkee",
    "Vanara": "Vanara",
    "Versatile Heritages": "Héritages polyvalents",
    "Vishkanya": "Vishkanya",
    "Wayang": "Wayang",
    "Yaksha": "Yaksha",
    "Yaoguai": "Yaoguai"
}