[{
    "command": "ssmacro.replace",
    "args": {
        "info": "remove changé",
        "find": "changé\\nChangés[^\\n]*\\nÉtat d'origine: (libre|officielle)",
        "replace": "$1",
        "all": true,
        "reg": true,
        "flag": "gm"
    }
}]
